{
	"info": {
		"_postman_id": "22bda434-b6cd-42f0-8944-dd32707d382d",
		"name": "Holiday",
		"schema": "https://schema.getpostman.com/json/collection/v2.1.0/collection.json"
	},
	"item": [
		{
			"name": "Get Holiday",
			"request": {
				"method": "GET",
				"header": [],
				"url": {
					"raw": "http://localhost:8080/holiday/holiday?country1=POLAND&country2=BRAZIL&holidayDate=2021-01-01\n",
					"protocol": "http",
					"host": [
						"localhost"
					],
					"port": "8080",
					"path": [
						"holiday",
						"holiday"
					],
					"query": [
						{
							"key": "country1",
							"value": "POLAND"
						},
						{
							"key": "country2",
							"value": "BRAZIL"
						},
						{
							"key": "holidayDate",
							"value": "2021-01-01\n"
						}
					]
				}
			},
			"response": []
		}
	]
}